10. Table Pivots
…
Stop!

Before moving ahead, think about this question: What would a longer version of food_prices look like?

3.1 Pivoting longer

To make this table longer, we will use the pivot_longer function. This function requires specifying which features should be turned into values in the output dataset. Often, it’s easier to specify the features that should remain as columns, which you can do using the ! notation to indicate “not this column.”

Here, we indicate that the year column should remain:

food_prices |>
  pivot_longer(cols = !year)

# A tibble: 1,898 × 3
    year name    value
   <dbl> <chr>   <dbl>
 1  1870 tea     129. 
 2  1870 sugar   151. 
 3  1870 peanuts 203. 
 4  1870 coffee   88.1
 5  1870 cocoa    78.8
 6  1870 wheat    88.1
 7  1870 rye     103. 
 8  1870 rice     83.5
 9  1870 corn    121. 
10  1870 barley  103. 
# ℹ 1,888 more rows

This looks close to a long-form version of the food_prices dataset. You will notice that the year column persists (as requested above), and the names of the wider columns have been put into a new column called name, which is the default value. The values from the wider table have been passed to another column, with the default name value.

We can improve our longer table by setting better column names using the names_to and values_to options:

food_prices |>
  pivot_longer(cols = !year, names_to = "food", values_to = "price")

# A tibble: 1,898 × 3
    year food    price
   <dbl> <chr>   <dbl>
 1  1870 tea     129. 
 2  1870 sugar   151. 
 3  1870 peanuts 203. 
 4  1870 coffee   88.1
 5  1870 cocoa    78.8
 6  1870 wheat    88.1
 7  1870 rye     103. 
 8  1870 rice     83.5
 9  1870 corn    121. 
10  1870 barley  103. 
# ℹ 1,888 more rows
…
