Notebook 05 – Solutions
…
Starting with the code in the previous block, summarize the data set by pasting together the city names.

us |>
  group_by(year) |>
  arrange(desc(population)) |>
  slice(1:5) |>
  summarize(cities = paste(city, collapse = "|")) |> 
  # again, just for ease of viewing in the solutions; `print` is not needed:
  print()

# A tibble: 23 × 2
    year cities                                                             
   <dbl> <chr>                                                              
 1  1790 New York City, NY|Philadelphia, PA|Boston, MA|Charleston, SC|Balti…
 2  1800 New York City, NY|Philadelphia, PA|Baltimore, MD|Boston, MA|Charle…
 3  1810 New York City, NY|Philadelphia, PA|Baltimore, MD|Boston, MA|Charle…
 4  1820 New York City, NY|Philadelphia, PA|Baltimore, MD|Boston, MA|New Or…
 5  1830 New York City, NY|Baltimore, MD|Philadelphia, PA|Boston, MA|New Or…
 6  1840 New York City, NY|Baltimore, MD|New Orleans, LA|Philadelphia, PA|B…
 7  1850 New York City, NY|Baltimore, MD|Boston, MA|Philadelphia, PA|New Or…
 8  1860 New York City, NY|Philadelphia, PA|Baltimore, MD|Boston, MA|New Or…
 9  1870 New York City, NY|Philadelphia, PA|St. Louis, MO|Chicago, IL|Balti…
10  1880 New York City, NY|Philadelphia, PA|Chicago, IL|Boston, MA|St. Loui…
# ℹ 13 more rows
…
