Notebook 10
…
2.2 Widening Data: Cities as Observations

The us cities data set is a good candidate for pivoting to a wider table. In its default form, there is one row for each unique combination of year and city. However, some plots and analyses are easier to run if we create a data set with either time or the cities.

Let’s start by creating a widened data set where each row is a city. Years will then be turned into columns. Create this data set using pivot_wider(), with names coming from the years and values from the population. As we saw previously, use the names prefix “year_” to avoid column names staring with a number.

us |>
  pivot_wider(
    names_from = year,
    values_from = population,
    names_prefix = "year_"
  )

# A tibble: 300 × 27
   city     state    lon   lat year_1790 year_1800 year_1810 year_1820 year_1830
   <chr>    <chr>  <dbl> <dbl>     <dbl>     <dbl>     <dbl>     <dbl>     <dbl>
 1 Anchora… AK    -149.   61.2         0         0         0         0      0   
 2 Birming… AL     -86.8  33.5         0         0         0         0      0   
 3 Huntsvi… AL     -86.5  34.8         0         0         0         0      0   
 4 Mobile,… AL     -88.1  30.7         0         0         0         0      3.19
 5 Montgom… AL     -86.3  32.3         0         0         0         0      0   
 6 Little … AR     -92.4  34.7         0         0         0         0      0   
 7 Chandle… AZ    -112.   33.3         0         0         0         0      0   
 8 Gilbert… AZ    -112.   33.3         0         0         0         0      0   
 9 Glendal… AZ    -112.   33.5         0         0         0         0      0   
10 Mesa, AZ AZ    -112.   33.4         0         0         0         0      0   
# ℹ 290 more rows
# ℹ 18 more variables: year_1840 <dbl>, year_1850 <dbl>, year_1860 <dbl>,
#   year_1870 <dbl>, year_1880 <dbl>, year_1890 <dbl>, year_1900 <dbl>,
#   year_1910 <dbl>, year_1920 <dbl>, year_1930 <dbl>, year_1940 <dbl>,
#   year_1950 <dbl>, year_1960 <dbl>, year_1970 <dbl>, year_1980 <dbl>,
#   year_1990 <dbl>, year_2000 <dbl>, year_2010 <dbl>
…
3 Widening Data: Years as Observations

Another possibility for pivoting the us data set is to have the observations be years and the variables be the cities.

In the code block below, try to pivot_wider using names from the city variable and values from the population. We do not need a variable prefix here.

us |>
  pivot_wider(names_from = city, values_from = population)

# A tibble: 6,808 × 304
   state  year    lon   lat `Anchorage, AK` `Birmingham, AL` `Huntsville, AL`
   <chr> <dbl>  <dbl> <dbl>           <dbl>            <dbl>            <dbl>
 1 AK     1790 -149.   61.2               0               NA               NA
 2 AL     1790  -86.8  33.5              NA                0               NA
 3 AL     1790  -86.5  34.8              NA               NA                0
 4 AL     1790  -88.1  30.7              NA               NA               NA
 5 AL     1790  -86.3  32.3              NA               NA               NA
 6 AR     1790  -92.4  34.7              NA               NA               NA
 7 AZ     1790 -112.   33.3              NA               NA               NA
 8 AZ     1790 -112.   33.3              NA               NA               NA
 9 AZ     1790 -112.   33.5              NA               NA               NA
10 AZ     1790 -112.   33.4              NA               NA               NA
# ℹ 6,798 more rows
# ℹ 297 more variables: `Mobile, AL` <dbl>, `Montgomery, AL` <dbl>,
#   `Little Rock, AR` <dbl>, `Chandler, AZ` <dbl>, `Gilbert, AZ` <dbl>,
#   `Glendale, AZ` <dbl>, `Mesa, AZ` <dbl>, `Peoria, AZ` <dbl>,
#   `Phoenix, AZ` <dbl>, `Scottsdale, AZ` <dbl>, `Tempe, AZ` <dbl>,
#   `Tucson, AZ` <dbl>, `Anaheim, CA` <dbl>, `Antioch, CA` <dbl>,
#   `Bakersfield, CA` <dbl>, `Berkeley, CA` <dbl>, `Burbank, CA` <dbl>, …

But there is a problem. There are several other variables tied to each specific city (lon, lat, and state) that make the output data set have many missing values and far too many rows. Modify the code above by first using the select function to grab only the three variables city, year, and population.

us |>
  select(city, year, population) |>
  pivot_wider(names_from = city, values_from = population)

# A tibble: 23 × 301
    year `Anchorage, AK` `Birmingham, AL` `Huntsville, AL` `Mobile, AL`
   <dbl>           <dbl>            <dbl>            <dbl>        <dbl>
 1  1790               0             0                0            0   
 2  1800               0             0                0            0   
 3  1810               0             0                0            0   
 4  1820               0             0                0            0   
 5  1830               0             0                0            3.19
 6  1840               0             0                0           12.7 
 7  1850               0             0                2.86        20.5 
 8  1860               0             0                3.63        29.3 
 9  1870               0             0                4.91        32.0 
10  1880               0             3.09             4.98        29.1 
# ℹ 13 more rows
# ℹ 296 more variables: `Montgomery, AL` <dbl>, `Little Rock, AR` <dbl>,
#   `Chandler, AZ` <dbl>, `Gilbert, AZ` <dbl>, `Glendale, AZ` <dbl>,
#   `Mesa, AZ` <dbl>, `Peoria, AZ` <dbl>, `Phoenix, AZ` <dbl>,
#   `Scottsdale, AZ` <dbl>, `Tempe, AZ` <dbl>, `Tucson, AZ` <dbl>,
#   `Anaheim, CA` <dbl>, `Antioch, CA` <dbl>, `Bakersfield, CA` <dbl>,
#   `Berkeley, CA` <dbl>, `Burbank, CA` <dbl>, `Carson, CA` <dbl>, …
…
Run the answer to your last question with the new dataset us_cities and verify that the names are now “proper” R variable names:

us_cities |>
  select(city, year, population) |>
  pivot_wider(names_from = city, values_from = population)

# A tibble: 23 × 301
    year anchorage_ak birmingham_al huntsville_al mobile_al montgomery_al
   <dbl>        <dbl>         <dbl>         <dbl>     <dbl>         <dbl>
 1  1790            0          0             0         0             0   
 2  1800            0          0             0         0             0   
 3  1810            0          0             0         0             0   
 4  1820            0          0             0         0             0   
 5  1830            0          0             0         3.19          0   
 6  1840            0          0             0        12.7           2.2 
 7  1850            0          0             2.86     20.5           8.73
 8  1860            0          0             3.63     29.3           8.84
 9  1870            0          0             4.91     32.0          10.6 
10  1880            0          3.09          4.98     29.1          16.7 
# ℹ 13 more rows
# ℹ 295 more variables: little_rock_ar <dbl>, chandler_az <dbl>,
#   gilbert_az <dbl>, glendale_az <dbl>, mesa_az <dbl>, peoria_az <dbl>,
#   phoenix_az <dbl>, scottsdale_az <dbl>, tempe_az <dbl>, tucson_az <dbl>,
#   anaheim_ca <dbl>, antioch_ca <dbl>, bakersfield_ca <dbl>,
#   berkeley_ca <dbl>, burbank_ca <dbl>, carson_ca <dbl>, chula_vista_ca <dbl>,
#   compton_ca <dbl>, concord_ca <dbl>, corona_ca <dbl>, costa_mesa_ca <dbl>, …
…
